<svg xmlns="http://www.w3.org/2000/svg" xmlns:xlink="http://www.w3.org/1999/xlink" width="17" height="17" viewBox="0 0 17 17">
    <defs>
        <path id="prefix__a" d="M12.804 7.868c.22 0 .397.18.397.401 0 1.253-.478 2.432-1.346 3.318-.76.776-1.74 1.248-2.796 1.354l-.001 3.209h2.374c.216 0 .4.163.4.377 0 .203-.166.36-.368.376l-.032.001H5.871c-.216 0-.4-.163-.4-.377 0-.203.166-.36.368-.376l.032-.001h2.432v-3.193c-1.14-.06-2.201-.542-3.012-1.37-.868-.886-1.346-2.065-1.346-3.318 0-.22.177-.401.397-.401.22 0 .397.18.397.401 0 1.041.396 2.018 1.116 2.754.698.712 1.617 1.113 2.598 1.137H8.6c1.017 0 1.971-.403 2.69-1.137.72-.736 1.117-1.713 1.117-2.754 0-.22.177-.401.397-.401zM8.16 1.428c.148-.45.75-.451.9-.002l.823 2.471 2.51.054c.444.01.632.598.294.892l-.019.015-1.995 1.58.725 2.497c.13.45-.338.821-.707.577L10.67 9.5 8.609 8.002 6.548 9.499c-.364.266-.843-.094-.733-.54l.006-.023.725-2.499-1.996-1.58c-.356-.282-.182-.875.253-.905l.024-.001 2.51-.054zm.45.534l-.004.002-.785 2.374c-.03.088-.107.148-.195.15l-2.39.051c-.004 0-.005.005-.003.007l1.904 1.518c.071.057.101.155.075.246L6.52 8.713c-.001.003.003.006.006.004L8.49 7.281c.072-.053.167-.053.239 0l1.963 1.436c.003.003.008 0 .007-.004l-.692-2.403c-.027-.09.004-.19.075-.246l1.904-1.518c.003-.002.001-.007-.002-.007l-2.391-.051c-.088-.002-.166-.062-.195-.15l-.785-2.374c-.001-.003-.007-.003-.008 0z"/>
    </defs>
    <g fill="none" fill-rule="evenodd">
        <mask id="prefix__b" fill="#fff">
            <use xlink:href="#prefix__a"/>
        </mask>
        <use fill="#FFF" fill-rule="nonzero" xlink:href="#prefix__a"/>
        <g fill="#FFF" mask="url(#prefix__b)">
            <path d="M0 0H17V17H0z"/>
        </g>
    </g>
</svg>
