<svg xmlns="http://www.w3.org/2000/svg" xmlns:xlink="http://www.w3.org/1999/xlink" width="26" height="26" viewBox="0 0 26 26">
    <defs>
        <path id="prefix__a" d="M9.392 0c5.187 0 9.392 4.205 9.392 9.393 0 1.92-.576 3.706-1.566 5.194l6.02 6.017c.725.728.725 1.906-.001 2.633-.707.707-1.842.727-2.571.059l-.062-.06-6.018-6.017c-1.488.989-3.274 1.565-5.194 1.565C4.205 18.784 0 14.58 0 9.393S4.205 0 9.392 0zm7.005 15.65c-.235.262-.485.512-.748.747l5.898 5.897c.206.206.54.206.747 0 .194-.194.205-.502.034-.71l-.034-.037zM9.392 1.332c-4.45 0-8.059 3.609-8.059 8.06 0 4.45 3.608 8.058 8.059 8.058 4.45 0 8.059-3.608 8.059-8.058 0-4.451-3.609-8.06-8.06-8.06zm.442 1.384l.148.004c.368.012.656.32.644.688-.012.368-.32.656-.688.644-1.553-.05-3.056.527-4.17 1.641-1.116 1.116-1.694 2.618-1.642 4.17.012.369-.276.677-.644.69-.368.011-.676-.277-.688-.645-.064-1.917.65-3.778 2.03-5.158 1.344-1.343 3.145-2.056 5.01-2.034z"/>
    </defs>
    <g fill="none" fill-rule="evenodd" transform="translate(1 1)">
        <mask id="prefix__b" fill="#fff">
            <use xlink:href="#prefix__a"/>
        </mask>
        <use fill="#FFF" fill-rule="nonzero" xlink:href="#prefix__a"/>
        <g fill="#FFF" mask="url(#prefix__b)">
            <path d="M0 0H26V26H0z" transform="translate(-1 -1)"/>
        </g>
    </g>
</svg>
